{
	"info": {
		"_postman_id": "6fc50fe5-1d07-4324-936d-ac6f01e98018",
		"name": "1. Semua API Mandiri",
		"schema": "https://schema.getpostman.com/json/collection/v2.1.0/collection.json"
	},
	"item": [
		{
			"name": "Mandiri",
			"item": [
				{
					"name": "Local UserProfile Create",
					"request": {
						"method": "POST",
						"header": [],
						"body": {
							"mode": "raw",
							"raw": "        [{  \"username\":\"Dewi Permata\",\r\n             \"nama\":\"Dewi\",\r\n             \"address\":\"Jl Kh Mas mansyur gg harapan, Tangerang\",\r\n             \"bod\":\"2021-11-01\",\r\n             \"email\":\"123hahmad@gmail.com\"\r\n         }]",
							"options": {
								"raw": {
									"language": "json"
								}
							}
						},
						"url": {
							"raw": "http://localhost:51543/MandiriApi/Create",
							"protocol": "http",
							"host": [
								"localhost"
							],
							"port": "51543",
							"path": [
								"MandiriApi",
								"Create"
							]
						}
					},
					"response": []
				},
				{
					"name": "Local UserProfile Update",
					"request": {
						"method": "POST",
						"header": [],
						"body": {
							"mode": "raw",
							"raw": "        [{  \"username\":\"Hafizh Ahmad\",\r\n             \"nama\":\"Hafizh Ahmad\",\r\n             \"address\":\"Jl Kh Mas mansyur gg harapan, Tangerang\",\r\n             \"bod\":\"2021-11-01\",\r\n             \"email\":\"3457hahmad@gmail.com\"\r\n         }]",
							"options": {
								"raw": {
									"language": "json"
								}
							}
						},
						"url": {
							"raw": "http://localhost:51543/MandiriApi/Update",
							"protocol": "http",
							"host": [
								"localhost"
							],
							"port": "51543",
							"path": [
								"MandiriApi",
								"Update"
							]
						}
					},
					"response": []
				},
				{
					"name": "Local UserProfile Delete",
					"request": {
						"method": "POST",
						"header": [],
						"body": {
							"mode": "raw",
							"raw": "        [{  \"idprofile\":\"9\"\r\n                     }]",
							"options": {
								"raw": {
									"language": "json"
								}
							}
						},
						"url": {
							"raw": "http://localhost:51543/MandiriApi/Delete",
							"protocol": "http",
							"host": [
								"localhost"
							],
							"port": "51543",
							"path": [
								"MandiriApi",
								"Delete"
							]
						}
					},
					"response": []
				},
				{
					"name": "Local GetUserProfile",
					"request": {
						"method": "GET",
						"header": [],
						"url": {
							"raw": "http://localhost:51543/MandiriApi/GetUserProfile",
							"protocol": "http",
							"host": [
								"localhost"
							],
							"port": "51543",
							"path": [
								"MandiriApi",
								"GetUserProfile"
							]
						}
					},
					"response": []
				},
				{
					"name": "Local Skill Master Add",
					"request": {
						"method": "POST",
						"header": [],
						"body": {
							"mode": "raw",
							"raw": " [{  \"skillid\":\"022\",\r\n     \"skillname\":\"Skill Komputer\"         \r\n}]",
							"options": {
								"raw": {
									"language": "json"
								}
							}
						},
						"url": {
							"raw": "http://localhost:51543/MandiriApi/SkillMasterAdd",
							"protocol": "http",
							"host": [
								"localhost"
							],
							"port": "51543",
							"path": [
								"MandiriApi",
								"SkillMasterAdd"
							]
						}
					},
					"response": []
				},
				{
					"name": "Local Skill Master Update",
					"request": {
						"method": "POST",
						"header": [],
						"body": {
							"mode": "raw",
							"raw": " [{  \"skillid\":\"020\",\r\n     \"skillname\":\"Skill A\"         \r\n}]",
							"options": {
								"raw": {
									"language": "json"
								}
							}
						},
						"url": {
							"raw": "http://localhost:51543/MandiriApi/SkillMasterUpdate",
							"protocol": "http",
							"host": [
								"localhost"
							],
							"port": "51543",
							"path": [
								"MandiriApi",
								"SkillMasterUpdate"
							]
						}
					},
					"response": []
				},
				{
					"name": "Local Skill Master Delete",
					"request": {
						"method": "POST",
						"header": [],
						"body": {
							"mode": "raw",
							"raw": " [{  \"skillid\":\"22\"    \r\n}]",
							"options": {
								"raw": {
									"language": "json"
								}
							}
						},
						"url": {
							"raw": "http://localhost:51543/MandiriApi/SkillMasterDelete",
							"protocol": "http",
							"host": [
								"localhost"
							],
							"port": "51543",
							"path": [
								"MandiriApi",
								"SkillMasterDelete"
							]
						}
					},
					"response": []
				},
				{
					"name": "Local Skill Master Get",
					"request": {
						"method": "GET",
						"header": [],
						"url": {
							"raw": "http://localhost:51543/MandiriApi/GetSkillMaster",
							"protocol": "http",
							"host": [
								"localhost"
							],
							"port": "51543",
							"path": [
								"MandiriApi",
								"GetSkillMaster"
							]
						}
					},
					"response": []
				},
				{
					"name": "Local Skill Level Add",
					"request": {
						"method": "POST",
						"header": [],
						"body": {
							"mode": "raw",
							"raw": " [{  \"skilllevelid\":\"9915\",\r\n     \"skilllevelname\":\"awam\"         \r\n}]",
							"options": {
								"raw": {
									"language": "json"
								}
							}
						},
						"url": {
							"raw": "http://localhost:51543/MandiriApi/SkillLevelAdd",
							"protocol": "http",
							"host": [
								"localhost"
							],
							"port": "51543",
							"path": [
								"MandiriApi",
								"SkillLevelAdd"
							]
						}
					},
					"response": []
				},
				{
					"name": "Local Skill Level Update",
					"request": {
						"method": "POST",
						"header": [],
						"body": {
							"mode": "raw",
							"raw": " [{  \"skilllevelid\":\"9914\",\r\n     \"skilllevelname\":\"Dasar\"         \r\n}]",
							"options": {
								"raw": {
									"language": "json"
								}
							}
						},
						"url": {
							"raw": "http://localhost:51543/MandiriApi/SkillLevelUpdate",
							"protocol": "http",
							"host": [
								"localhost"
							],
							"port": "51543",
							"path": [
								"MandiriApi",
								"SkillLevelUpdate"
							]
						}
					},
					"response": []
				},
				{
					"name": "Local Skill Level Delete",
					"request": {
						"method": "POST",
						"header": [],
						"body": {
							"mode": "raw",
							"raw": " [{  \"skilllevelid\":\"9914\"\r\n        \r\n}]",
							"options": {
								"raw": {
									"language": "json"
								}
							}
						},
						"url": {
							"raw": "http://localhost:51543/MandiriApi/SkillLevelDelete",
							"protocol": "http",
							"host": [
								"localhost"
							],
							"port": "51543",
							"path": [
								"MandiriApi",
								"SkillLevelDelete"
							]
						}
					},
					"response": []
				}
			]
		}
	]
}